Place,Name,BirthYear,Country,BodyweightKg,Squat1Kg,Squat2Kg,Squat3Kg,Best3SquatKg,Bench1Kg,Bench2Kg,Bench3Kg,Best3BenchKg,Deadlift1Kg,Deadlift2Kg,Deadlift3Kg,Best3DeadliftKg,TotalKg,WeightClassKg,Division,Event,Sex,Equipment
1,Aliaksandr Shymanovich,2003,BLR,58.04,100,117.5,127.5,127.5,70,77.5,85,85,125,137.5,147.5,147.5,360,59,Open,SBD,M,Raw
1,Givi Margvelashvili,1989,GEO,65.2,-150,150,170,170,120,130,135,135,170,200,-215,200,505,66,Open,SBD,M,Raw
2,Albert Stankevich,2002,BLR,65.33,122.5,135,145,145,-72.5,72.5,80,80,120,135,-140,135,360,66,Open,SBD,M,Raw
1,Alexander Eriksson,1994,SWE,73.3,220,232.5,240,240,162.5,170,-175,170,260,282.5,287.5,287.5,697.5,74,Open,SBD,M,Raw
2,Krzystof Faron,1988,POL,73.95,205,-212.5,212.5,212.5,135,140,-145,140,260,270,280,280,632.5,74,Open,SBD,M,Raw
1,Yauheni Kautsevich,1988,BLR,82.27,240,255,262.5,262.5,155,-165,165,165,260,275,287.5,287.5,715,83,Open,SBD,M,Raw
1,Gustav Hedlund,1995,SWE,92.08,280,290,300,300,185,192.5,200,200,310,325,-340,325,825,93,Open,SBD,M,Raw
2,Mikalai Haravoi,1990,BLR,92.83,260,275,285,285,160,170,,170,280,300,310,310,765,93,Open,SBD,M,Raw
3,Simon Svedin,1989,SWE,89.63,240,250,-255,250,177.5,185,-187.5,185,275,-290,290,290,725,93,Open,SBD,M,Raw
4,Julio Alberto Canete,1993,ESP,91.05,230,-247.5,250,250,147.5,157.5,-165,157.5,250,265,280,280,687.5,93,Open,SBD,M,Raw
5,Maksim Tseliapniou,1991,BLR,92.83,230,240,250,250,140,147.5,-150,147.5,255,265,-292.5,265,662.5,93,Open,SBD,M,Raw
1,Gergo Opra,1994,HUN,103.61,255,272.5,-277.5,272.5,185,-195,-195,185,285,295,-302.5,295,752.5,105,Open,SBD,M,Raw
2,Ingvi Örn Friðriksson,1994,ISL,103.8,242.5,252.5,260,260,147.5,155,160,160,282.5,297.5,305,305,725,105,Open,SBD,M,Raw
3,Eduard Moreno Curto,1983,ESP,103.66,235,245,250,250,150,160,162.5,162.5,280,287.5,-292.5,287.5,700,105,Open,SBD,M,Raw
4,Marcos Fernández Martínez,1977,ESP,100.54,250,262.5,272.5,272.5,140,145,,145,250,260,-267.5,260,677.5,105,Open,SBD,M,Raw
1,Pablo Sauci,1997,ESP,111.64,195,205,212.5,212.5,130,135,-140,135,230,-237.5,240,240,587.5,120,Open,SBD,M,Raw
1,Zak Anthony Bristow,1998,ESP,137.21,235,250,-262.5,250,175,185,192.5,192.5,300,320,-330,320,762.5,120+,Open,SBD,M,Raw
1,Barbero Permuy,1965,ESP,65.57,,,,,132.5,137.5,-140,137.5,,,,,137.5,66,Open,B,M,Raw
1,Teimuraz Kalandadze,1984,GEO,73.22,,,,,130,140,-150,140,,,,,140,74,Open,B,M,Raw
2,Siarhei Tsybulski,2000,BLR,73.33,,,,,100,102.5,115,115,,,,,115,74,Open,B,M,Raw
1,Levani Giligashvili,1982,GEO,82.26,,,,,165,172.5,177.5,177.5,,,,,177.5,83,Open,B,M,Raw
2,Robert Nemes,1986,HUN,82.87,,,,,160,-170,-175,160,,,,,160,83,Open,B,M,Raw
1,Lorand Berke,1979,HUN,103.97,,,,,177.5,180,185,185,,,,,185,105,Open,B,M,Raw
2,Koba Kobakhidze,1975,GEO,100.75,,,,,170,175,177.5,177.5,,,,,177.5,105,Open,B,M,Raw
3,Yaguez Mayoral,1978,ESP,102.62,,,,,-170,170,-180,170,,,,,170,105,Open,B,M,Raw
DQ,Aliaksandr Dziamyanau,1986,BLR,102.26,,,,,-223.5,-223.5,-223.5,,,,,,,105,Open,B,M,Raw
1,Beatriz Cano Torres,1961,ESP,46.41,70,77.5,-82.5,77.5,55,57.5,-60,57.5,90,100,-110,100,235,47,Open,SBD,F,Raw
1,Mariya Yermak,1989,BLR,50.39,125,127.5,135,135,62.5,65,-67.5,65,130,-135,135,135,335,52,Open,SBD,F,Raw
2,Rosa Vazquez,1976,ESP,48.56,105,-110,-110,105,62.5,65,-67.5,65,135,142.5,-145,142.5,312.5,52,Open,SBD,F,Raw
3,Mara Moreno,1980,ESP,49.45,60,67.5,72.5,72.5,40,-45,-45,40,100,-120,-120,100,212.5,52,Open,SBD,F,Raw
DQ,Alina Babich,1992,BLR,50.9,-117.5,-117.5,-117.5,,,,,,,,,,,52,Open,SBD,F,Raw
1,Olimpia Felinska,1992,POL,55.8,115,125,-127.5,125,70,75,80,80,130,-140,-140,130,335,57,Open,SBD,F,Raw
1,Katsiaryna Miadzvetskaya,1998,BLR,61.59,95,110,117.5,117.5,-57.5,60,-65,60,105,-125,125,125,302.5,63,Open,SBD,F,Raw
1,Isabella von Weissenberg,1989,SWE,71.7,185,196.5,-200,196.5,90,-100,-100,90,180,200,,200,486.5,72,Open,SBD,F,Raw
2,Amanda Planas,1977,ESP,71.97,132.5,140,145,145,90,-95,-95,90,177.5,185,-190,185,420,72,Open,SBD,F,Raw
3,Karolina Radgowska,1992,POL,70.86,130,140,-145,140,60,65,-67.5,65,160,170,-182.5,170,375,72,Open,SBD,F,Raw
4,Marta Alcocer Beteta,1989,ESP,68.12,-115,-122.5,122.5,122.5,60,-65,-65,60,155,165,-170,165,347.5,72,Open,SBD,F,Raw
1,Jordana De Haro Cano,1987,ESP,51.52,,,,,67.5,-72.5,-72.5,67.5,,,,,67.5,52,Open,B,F,Raw
1,Maribel Cano Torres,1969,ESP,54.54,,,,,60,65,-67.5,65,,,,,65,57,Open,B,F,Raw
2,Nadezhda Tsereshko,2001,BLR,53.06,,,,,50,55,-60,55,,,,,55,57,Open,B,F,Raw
